…
# Creates new variable that is the range of possible diameters of the asteroid
june$diamRange <- june$diamMax - june$diamMin

# Creates new variable that categorizes range in low, medium, and high. Reordered from high, medium, and low.
june$diamRangeCategory <- ifelse(june$diamRange < quantile(june$diamRange, 0.25), "low",
                                  ifelse(june$diamRange < quantile(june$diamRange, 0.75), "medium", "high"))
june$diamRangeCategory <- ordered(june$diamRangeCategory, levels = c("high", "medium", "low"))

# Covert the dataset june from data frame to tibble. This helps printing quality and usability. 
june <- as_tibble(june)
june
```

    ## # A tibble: 68 x 9
    ##    date       idData  nameData           magData diamMin diamMax hazardData diamRange diamRangeCategory
    ##    <date>     <chr>   <chr>                <dbl>   <dbl>   <dbl> <lgl>          <dbl> <ord>            
    ##  1 2022-06-01 2163692 163692 (2003 CY18)    18.3  1943.   4345.  FALSE         2402.  high             
    ##  2 2022-06-01 2510529 510529 (2012 EY11)    21.7   399.    891.  TRUE           493.  high             
    ##  3 2022-06-01 2523813 523813 (2008 VB1)     20.6   646.   1446.  TRUE           799.  high             
    ##  4 2022-06-01 3092391 (2001 UX4)            19.3  1204.   2692.  FALSE         1488.  high             
    ##  5 2022-06-01 3370167 (2007 EF)             21.4   458.   1023.  TRUE           566.  high             
    ##  6 2022-06-01 3475231 (2009 VP)             22.7   252.    562.  FALSE          311.  medium           
    ##  7 2022-06-01 3666539 (2014 FS32)           26.6    41.7    93.3 FALSE           51.6 low              
    ##  8 2022-06-01 3734563 (2015 VP105)          25.6    66.2   148.  FALSE           81.8 medium           
    ##  9 2022-06-01 3735684 (2015 XQ1)            23.4   182.    407.  FALSE          225.  medium           
    ## 10 2022-06-01 3746620 (2016 ED156)          23.4   182.    407.  FALSE          225.  medium           
    ## # ... with 58 more rows
…
